\relax 
\providecommand\hyper@newdestlabel[2]{}
\providecommand\HyperFirstAtBeginDocument{\AtBeginDocument}
\HyperFirstAtBeginDocument{\ifx\hyper@anchor\@undefined
\global\let\oldcontentsline\contentsline
\gdef\contentsline#1#2#3#4{\oldcontentsline{#1}{#2}{#3}}
\global\let\oldnewlabel\newlabel
\gdef\newlabel#1#2{\newlabelxx{#1}#2}
\gdef\newlabelxx#1#2#3#4#5#6{\oldnewlabel{#1}{{#2}{#3}}}
\AtEndDocument{\ifx\hyper@anchor\@undefined
\let\contentsline\oldcontentsline
\let\newlabel\oldnewlabel
\fi}
\fi}
\global\let\hyper@last\relax 
\gdef\HyperFirstAtBeginDocument#1{#1}
\providecommand\HyField@AuxAddToFields[1]{}
\providecommand\HyField@AuxAddToCoFields[2]{}
\newlabel{eq:waveop}{{1}{1}{}{equation.0.1}{}}
\newlabel{eq:waveeq}{{2}{1}{}{equation.0.2}{}}
\newlabel{eq:data}{{3}{1}{}{equation.0.3}{}}
\newlabel{eq:obj}{{4}{1}{}{equation.0.4}{}}
\@writefile{toc}{\contentsline {section}{\numberline {1}Born operator}{1}{section.1}}
\newlabel{eq:born}{{5}{1}{Born operator}{equation.1.5}{}}
\newlabel{eq:borneq}{{7}{1}{Born operator}{equation.1.7}{}}
\citation{Fichtner}
\citation{Fichtner}
\newlabel{eq:born1}{{8}{2}{Born operator}{equation.1.8}{}}
\newlabel{eq:bornop}{{9}{2}{Born operator}{equation.1.9}{}}
\@writefile{toc}{\contentsline {section}{\numberline {2}Gradient}{2}{section.2}}
\newlabel{eq:adjointeq}{{10}{2}{Gradient}{equation.2.10}{}}
\newlabel{eq:deriv1st}{{11}{2}{Gradient}{equation.2.11}{}}
\newlabel{eqxx}{{12}{2}{Gradient}{equation.2.12}{}}
\@writefile{toc}{\contentsline {section}{\numberline {3}Hessians}{2}{section.3}}
\newlabel{eq:hess}{{13}{2}{Hessians}{equation.3.13}{}}
\@writefile{lof}{\contentsline {figure}{\numberline {1}{\ignorespaces Sensitivity zone from the gradient. Figure taken from \cite  {Fichtner}.\relax }}{3}{figure.caption.1}}
\providecommand*\caption@xref[2]{\@setref\relax\@undefined{#1}}
\newlabel{fig:f1}{{1}{3}{Sensitivity zone from the gradient. Figure taken from \cite {Fichtner}.\relax }{figure.caption.1}{}}
\newlabel{eq:hessap}{{14}{3}{Hessians}{equation.3.14}{}}
\newlabel{eq:secondadjoint}{{15}{3}{Hessians}{equation.3.15}{}}
\citation{Fichtner}
\citation{Fichtner}
\newlabel{eq:secondadjoint1}{{16a}{4}{Hessians}{equation.3.16a}{}}
\newlabel{eq:secondadjoint2}{{16b}{4}{Hessians}{equation.3.16b}{}}
\newlabel{eq:hessap1}{{17}{4}{Hessians}{equation.3.17}{}}
\newlabel{eq:hessap2}{{19}{4}{Hessians}{equation.3.19}{}}
\@writefile{toc}{\contentsline {section}{\numberline {4}Image and WEMVA operator}{4}{section.4}}
\@writefile{lof}{\contentsline {figure}{\numberline {2}{\ignorespaces Sensitivity zones from the Hessian. Figure taken from \cite  {Fichtner}.\relax }}{5}{figure.caption.2}}
\newlabel{fig:f2}{{2}{5}{Sensitivity zones from the Hessian. Figure taken from \cite {Fichtner}.\relax }{figure.caption.2}{}}
\newlabel{eq:image}{{20}{5}{Image and WEMVA operator}{equation.4.20}{}}
\newlabel{eq:adjointeq1}{{21}{5}{Image and WEMVA operator}{equation.4.21}{}}
\newlabel{eq:wemva}{{23}{5}{Image and WEMVA operator}{equation.4.23}{}}
\newlabel{eq:dadjointeq1}{{24}{5}{Image and WEMVA operator}{equation.4.24}{}}
\citation{Laurent}
\newlabel{eq:allimage}{{27}{6}{Image and WEMVA operator}{equation.4.27}{}}
\@writefile{toc}{\contentsline {section}{\numberline {5}Born series, Jacobian, and Hessian tensor}{6}{section.5}}
\newlabel{eq:bornseries}{{30}{6}{Born series, Jacobian, and Hessian tensor}{equation.5.30}{}}
\newlabel{eq:jacobian}{{31a}{6}{Born series, Jacobian, and Hessian tensor}{equation.5.31a}{}}
\newlabel{eq:hessiantensor}{{31b}{6}{Born series, Jacobian, and Hessian tensor}{equation.5.31b}{}}
\newlabel{eq:u0}{{32a}{7}{Born series, Jacobian, and Hessian tensor}{equation.5.32a}{}}
\newlabel{eq:u1}{{32b}{7}{Born series, Jacobian, and Hessian tensor}{equation.5.32b}{}}
\newlabel{eq:u2}{{32c}{7}{Born series, Jacobian, and Hessian tensor}{equation.5.32c}{}}
\newlabel{eqa}{{34a}{7}{Born series, Jacobian, and Hessian tensor}{equation.5.34a}{}}
\newlabel{eqb}{{34b}{7}{Born series, Jacobian, and Hessian tensor}{equation.5.34b}{}}
\newlabel{eq:u1eq}{{35a}{7}{Born series, Jacobian, and Hessian tensor}{equation.5.35a}{}}
\newlabel{eq:u2eq}{{35b}{7}{Born series, Jacobian, and Hessian tensor}{equation.5.35b}{}}
\newlabel{eq:B}{{38a}{7}{Born series, Jacobian, and Hessian tensor}{equation.5.38a}{}}
\newlabel{eq:Bm}{{38b}{7}{Born series, Jacobian, and Hessian tensor}{equation.5.38b}{}}
\newlabel{WEMVAandB}{{40b}{8}{Born series, Jacobian, and Hessian tensor}{equation.5.40b}{}}
\@writefile{toc}{\contentsline {section}{\numberline {6}Tomographic operator}{8}{section.6}}
\newlabel{eq:tomo}{{41b}{8}{Tomographic operator}{equation.6.41b}{}}
\newlabel{eq:u12eq}{{42}{8}{Tomographic operator}{equation.6.42}{}}
\newlabel{eq:u12}{{43}{8}{Tomographic operator}{equation.6.43}{}}
\newlabel{eq:tomo1}{{44}{8}{Tomographic operator}{equation.6.44}{}}
\newlabel{eq:obj1}{{45}{8}{Tomographic operator}{equation.6.45}{}}
\@writefile{toc}{\contentsline {section}{\numberline {7}RFWI=LSRTM+WEMVA}{9}{section.7}}
\@writefile{toc}{\contentsline {section}{\numberline {8}Summary}{9}{section.8}}
\@writefile{toc}{\contentsline {subsection}{\numberline {8.1}Definitions}{9}{subsection.8.1}}
\@writefile{toc}{\contentsline {subsection}{\numberline {8.2}Born operator}{10}{subsection.8.2}}
\@writefile{toc}{\contentsline {subsection}{\numberline {8.3}Gradient}{10}{subsection.8.3}}
\@writefile{toc}{\contentsline {subsection}{\numberline {8.4}Hessians}{10}{subsection.8.4}}
\@writefile{toc}{\contentsline {subsection}{\numberline {8.5}Image and WEMVA}{10}{subsection.8.5}}
\@writefile{toc}{\contentsline {subsection}{\numberline {8.6}Born series, Jacobian, and Hessian tensor}{11}{subsection.8.6}}
\@writefile{toc}{\contentsline {subsection}{\numberline {8.7}Tomographic operator}{11}{subsection.8.7}}
\bibcite{Ali}{1}
\bibcite{Guillaume}{2}
\bibcite{Biondo}{3}
\bibcite{Fichtner}{4}
\bibcite{Laurent}{5}
\@writefile{toc}{\contentsline {subsection}{\numberline {8.8}RFWI}{12}{subsection.8.8}}
